mc20_13TeV:mc20_13TeV.346310.PowhegPythia8EvtGen_NNPDF30_AZNLO_ZH125J_Zincl_H_incl_MINLO.deriv.DAOD_PHYSLITE.e7151_s3681_r13144_r13146_p5855
mc20_13TeV:mc20_13TeV.346310.PowhegPythia8EvtGen_NNPDF30_AZNLO_ZH125J_Zincl_H_incl_MINLO.deriv.DAOD_PHYSLITE.e7151_s3681_r13145_r13146_p5855
mc20_13TeV:mc20_13TeV.346310.PowhegPythia8EvtGen_NNPDF30_AZNLO_ZH125J_Zincl_H_incl_MINLO.deriv.DAOD_PHYSLITE.e7151_s3681_r13167_r13146_p5855
mc20_13TeV:mc20_13TeV.346524.PowhegPythia8EvtGen_NNPDF3_AZNLO_ggZH125J_MINLO_ZinclWWlvlv.deriv.DAOD_PHYSLITE.e7523_s3681_r13144_r13146_p5855
mc20_13TeV:mc20_13TeV.346524.PowhegPythia8EvtGen_NNPDF3_AZNLO_ggZH125J_MINLO_ZinclWWlvlv.deriv.DAOD_PHYSLITE.e7523_s3681_r13145_r13146_p5855
mc20_13TeV:mc20_13TeV.346524.PowhegPythia8EvtGen_NNPDF3_AZNLO_ggZH125J_MINLO_ZinclWWlvlv.deriv.DAOD_PHYSLITE.e7523_s3681_r13167_r13146_p5855
mc20_13TeV:mc20_13TeV.346312.PowhegPythia8EvtGen_NNPDF30_AZNLO_WmH125J_Wincl_H_incl_MINLO.deriv.DAOD_PHYSLITE.e7151_s3681_r13144_r13146_p5855
mc20_13TeV:mc20_13TeV.346312.PowhegPythia8EvtGen_NNPDF30_AZNLO_WmH125J_Wincl_H_incl_MINLO.deriv.DAOD_PHYSLITE.e7151_s3681_r13145_r13146_p5855
mc20_13TeV:mc20_13TeV.346312.PowhegPythia8EvtGen_NNPDF30_AZNLO_WmH125J_Wincl_H_incl_MINLO.deriv.DAOD_PHYSLITE.e7151_s3681_r13167_r13146_p5855
mc20_13TeV:mc20_13TeV.346311.PowhegPythia8EvtGen_NNPDF30_AZNLO_WpH125J_Wincl_H_incl_MINLO.deriv.DAOD_PHYSLITE.e7151_s3681_r13144_r13146_p5855
mc20_13TeV:mc20_13TeV.346311.PowhegPythia8EvtGen_NNPDF30_AZNLO_WpH125J_Wincl_H_incl_MINLO.deriv.DAOD_PHYSLITE.e7151_s3681_r13145_r13146_p5855
mc20_13TeV:mc20_13TeV.346311.PowhegPythia8EvtGen_NNPDF30_AZNLO_WpH125J_Wincl_H_incl_MINLO.deriv.DAOD_PHYSLITE.e7151_s3681_r13167_r13146_p5855
