#mc20_13TeV.364253.Sherpa_222_NNPDF30NNLO_lllv.deriv.DAOD_PHYS.e5916_s3681_r13144_p6026
#mc20_13TeV.364253.Sherpa_222_NNPDF30NNLO_lllv.deriv.DAOD_PHYS.e5916_s3681_r13145_p6026
mc20_13TeV.364253.Sherpa_222_NNPDF30NNLO_lllv.deriv.DAOD_PHYS.e5916_s3681_r13167_p6026
