mc20_13TeV.502959.MGPy8EG_NNPDF30NLO_hhml_2l0tau_l1cvv1cv1.deriv.DAOD_PHYS.e8263_s3681_r13144_r13146_p6266
mc20_13TeV.502959.MGPy8EG_NNPDF30NLO_hhml_2l0tau_l1cvv1cv1.deriv.DAOD_PHYS.e8263_s3681_r13145_r13146_p6266
mc20_13TeV.502959.MGPy8EG_NNPDF30NLO_hhml_2l0tau_l1cvv1cv1.deriv.DAOD_PHYS.e8263_s3681_r13167_r13146_p6266

mc20_13TeV.502960.MGPy8EG_NNPDF30NLO_hhml_2l1tau_l1cvv1cv1.deriv.DAOD_PHYS.e8263_s3681_r13144_r13146_p6266
mc20_13TeV.502960.MGPy8EG_NNPDF30NLO_hhml_2l1tau_l1cvv1cv1.deriv.DAOD_PHYS.e8263_s3681_r13145_r13146_p6266
mc20_13TeV.502960.MGPy8EG_NNPDF30NLO_hhml_2l1tau_l1cvv1cv1.deriv.DAOD_PHYS.e8263_s3681_r13167_r13146_p6266

mc20_13TeV.502961.MGPy8EG_NNPDF30NLO_hhml_3l0tau_l1cvv1cv1.deriv.DAOD_PHYS.e8263_s3681_r13144_r13146_p6266
mc20_13TeV.502961.MGPy8EG_NNPDF30NLO_hhml_3l0tau_l1cvv1cv1.deriv.DAOD_PHYS.e8263_s3681_r13145_r13146_p6266
mc20_13TeV.502961.MGPy8EG_NNPDF30NLO_hhml_3l0tau_l1cvv1cv1.deriv.DAOD_PHYS.e8263_s3681_r13167_r13146_p6266

mc20_13TeV.502962.MGPy8EG_NNPDF30NLO_hhml_3l1tau_l1cvv1cv1.deriv.DAOD_PHYS.e8263_s3681_r13144_r13146_p6266
mc20_13TeV.502962.MGPy8EG_NNPDF30NLO_hhml_3l1tau_l1cvv1cv1.deriv.DAOD_PHYS.e8263_s3681_r13145_r13146_p6266
mc20_13TeV.502962.MGPy8EG_NNPDF30NLO_hhml_3l1tau_l1cvv1cv1.deriv.DAOD_PHYS.e8263_s3681_r13167_r13146_p6266

mc20_13TeV.502963.MGPy8EG_NNPDF30NLO_hhml_4l0tau_l1cvv1cv1.deriv.DAOD_PHYS.e8263_s3681_r13144_r13146_p6266
mc20_13TeV.502963.MGPy8EG_NNPDF30NLO_hhml_4l0tau_l1cvv1cv1.deriv.DAOD_PHYS.e8263_s3681_r13145_r13146_p6266
mc20_13TeV.502963.MGPy8EG_NNPDF30NLO_hhml_4l0tau_l1cvv1cv1.deriv.DAOD_PHYS.e8263_s3681_r13167_r13146_p6266

mc20_13TeV.502964.MGPy8EG_NNPDF30NLO_hhml_4l1tau_l1cvv1cv1.deriv.DAOD_PHYS.e8263_s3681_r13144_r13146_p6266
mc20_13TeV.502964.MGPy8EG_NNPDF30NLO_hhml_4l1tau_l1cvv1cv1.deriv.DAOD_PHYS.e8263_s3681_r13145_r13146_p6266
mc20_13TeV.502964.MGPy8EG_NNPDF30NLO_hhml_4l1tau_l1cvv1cv1.deriv.DAOD_PHYS.e8263_s3681_r13167_r13146_p6266