mc20_13TeV.345060.PowhegPythia8EvtGen_NNLOPS_nnlo_30_ggH125_ZZ4l.deriv.DAOD_PHYS.e7735_s3681_r13144_p6266
mc20_13TeV.345060.PowhegPythia8EvtGen_NNLOPS_nnlo_30_ggH125_ZZ4l.deriv.DAOD_PHYS.e7735_s3681_r13145_p6266
mc20_13TeV.345060.PowhegPythia8EvtGen_NNLOPS_nnlo_30_ggH125_ZZ4l.deriv.DAOD_PHYS.e7735_s3681_r13167_p6266

mc20_13TeV.346695.PhPy8EG_Prophecy_NNLOPS_nnlo_30_ggH125_ZZ4l.deriv.DAOD_PHYS.e7769_s3681_r13144_p6266
mc20_13TeV.346695.PhPy8EG_Prophecy_NNLOPS_nnlo_30_ggH125_ZZ4l.deriv.DAOD_PHYS.e7769_s3681_r13145_p6266
mc20_13TeV.346695.PhPy8EG_Prophecy_NNLOPS_nnlo_30_ggH125_ZZ4l.deriv.DAOD_PHYS.e7769_s3681_r13167_p6266

mc20_13TeV.346701.PhPy8EG_Hto4l_NNLOPS_nnlo_30_ggH125_ZZ4l.deriv.DAOD_PHYS.e7769_s3681_r13144_p6266
mc20_13TeV.346701.PhPy8EG_Hto4l_NNLOPS_nnlo_30_ggH125_ZZ4l.deriv.DAOD_PHYS.e7769_s3681_r13145_p6266
mc20_13TeV.346701.PhPy8EG_Hto4l_NNLOPS_nnlo_30_ggH125_ZZ4l.deriv.DAOD_PHYS.e7769_s3681_r13167_p6266

mc20_13TeV.345324.PowhegPythia8EvtGen_NNLOPS_NN30_ggH125_WWlvlv_EF_15_5.deriv.DAOD_PHYS.e5769_s3681_r13144_p6266
mc20_13TeV.345324.PowhegPythia8EvtGen_NNLOPS_NN30_ggH125_WWlvlv_EF_15_5.deriv.DAOD_PHYS.e5769_s3681_r13145_p6266
mc20_13TeV.345324.PowhegPythia8EvtGen_NNLOPS_NN30_ggH125_WWlvlv_EF_15_5.deriv.DAOD_PHYS.e5769_s3681_r13167_p6266

mc20_13TeV.345120.PowhegPy8EG_NNLOPS_nnlo_30_ggH125_tautaul13l7.deriv.DAOD_PHYS.e5814_s3681_r13144_p6266
mc20_13TeV.345120.PowhegPy8EG_NNLOPS_nnlo_30_ggH125_tautaul13l7.deriv.DAOD_PHYS.e5814_s3681_r13145_p6266
mc20_13TeV.345120.PowhegPy8EG_NNLOPS_nnlo_30_ggH125_tautaul13l7.deriv.DAOD_PHYS.e5814_s3681_r13167_p6266

mc20_13TeV.345121.PowhegPy8EG_NNLOPS_nnlo_30_ggH125_tautaulm15hp20.deriv.DAOD_PHYS.e5814_s3681_r13144_p6266
mc20_13TeV.345121.PowhegPy8EG_NNLOPS_nnlo_30_ggH125_tautaulm15hp20.deriv.DAOD_PHYS.e5814_s3681_r13145_p6266
mc20_13TeV.345121.PowhegPy8EG_NNLOPS_nnlo_30_ggH125_tautaulm15hp20.deriv.DAOD_PHYS.e5814_s3681_r13167_p6266

mc20_13TeV.345122.PowhegPy8EG_NNLOPS_nnlo_30_ggH125_tautaulp15hm20.deriv.DAOD_PHYS.e5814_s3681_r13144_p6266
mc20_13TeV.345122.PowhegPy8EG_NNLOPS_nnlo_30_ggH125_tautaulp15hm20.deriv.DAOD_PHYS.e5814_s3681_r13145_p6266
mc20_13TeV.345122.PowhegPy8EG_NNLOPS_nnlo_30_ggH125_tautaulp15hm20.deriv.DAOD_PHYS.e5814_s3681_r13167_p6266

mc20_13TeV.345123.PowhegPy8EG_NNLOPS_nnlo_30_ggH125_tautauh30h20.deriv.DAOD_PHYS.e5814_s3681_r13144_p6266
mc20_13TeV.345123.PowhegPy8EG_NNLOPS_nnlo_30_ggH125_tautauh30h20.deriv.DAOD_PHYS.e5814_s3681_r13145_p6266
mc20_13TeV.345123.PowhegPy8EG_NNLOPS_nnlo_30_ggH125_tautauh30h20.deriv.DAOD_PHYS.e5814_s3681_r13167_p6266

mc20_13TeV.345097.PowhegPythia8EvtGen_NNLOPS_nnlo_30_ggH125_mumu.deriv.DAOD_PHYS.e5732_s3681_r13144_p6266
mc20_13TeV.345097.PowhegPythia8EvtGen_NNLOPS_nnlo_30_ggH125_mumu.deriv.DAOD_PHYS.e5732_s3681_r13145_p6266
mc20_13TeV.345097.PowhegPythia8EvtGen_NNLOPS_nnlo_30_ggH125_mumu.deriv.DAOD_PHYS.e5732_s3681_r13167_p6266